\relax 
\providecommand\hyper@newdestlabel[2]{}
\providecommand\HyperFirstAtBeginDocument{\AtBeginDocument}
\HyperFirstAtBeginDocument{\ifx\hyper@anchor\@undefined
\global\let\oldcontentsline\contentsline
\gdef\contentsline#1#2#3#4{\oldcontentsline{#1}{#2}{#3}}
\global\let\oldnewlabel\newlabel
\gdef\newlabel#1#2{\newlabelxx{#1}#2}
\gdef\newlabelxx#1#2#3#4#5#6{\oldnewlabel{#1}{{#2}{#3}}}
\AtEndDocument{\ifx\hyper@anchor\@undefined
\let\contentsline\oldcontentsline
\let\newlabel\oldnewlabel
\fi}
\fi}
\global\let\hyper@last\relax 
\gdef\HyperFirstAtBeginDocument#1{#1}
\providecommand\HyField@AuxAddToFields[1]{}
\providecommand\HyField@AuxAddToCoFields[2]{}
\citation{pras_2009}
\citation{brandenburg_mp3_1999,harris2011do,hines_perceived_2014}
\citation{barras2012sox,audacity2021}
\citation{leon_novel_2011,hicsonmez_methods_2013}
\citation{brandenburg_mp3_1999}
\citation{kandadai_audio_2008}
\citation{ssim,seewave,rapidbio,thompson_catsim_2020}
\citation{maguire_ghost_2014}
\citation{dalessandro_mp3_2009}
\citation{hennequin_codec_2017}
\@writefile{toc}{\contentsline {section}{\numberline {I}Introduction}{1}{section.1}\protected@file@percent }
\@writefile{toc}{\contentsline {section}{\numberline {II}Related Work}{1}{section.2}\protected@file@percent }
\@writefile{toc}{\contentsline {subsection}{\numberline {\mbox  {II-A}}Existing and explored methods}{1}{subsection.2.1}\protected@file@percent }
\citation{dalessandro_mp3_2009,decker_fakin_2019,gar_software_similarity_2019}
\citation{dietz2002spectral}
\citation{dalessandro_mp3_2009,gar_software_similarity_2019}
\@writefile{lof}{\contentsline {figure}{\numberline {1}{\ignorespaces Spectrograms of different encodings of an audio sample from the MedleyDB dataset. This is a representation of audio data following a Fast Fourier transformation. The original WAV quality sample is seen on the far left and the appearence of audio compression artifacts can be seen progressing from the 320kBps to 128kBps samples. The $\mu $-law transcode is a re-encoding of the 128kBps sample with the $\mu $-law algorithm, which adds noise up to 20kHz.}}{2}{figure.1}\protected@file@percent }
\newlabel{fig:spectros}{{1}{2}{Spectrograms of different encodings of an audio sample from the MedleyDB dataset. This is a representation of audio data following a Fast Fourier transformation. The original WAV quality sample is seen on the far left and the appearence of audio compression artifacts can be seen progressing from the 320kBps to 128kBps samples. The $\mu $-law transcode is a re-encoding of the 128kBps sample with the $\mu $-law algorithm, which adds noise up to 20kHz}{figure.1}{}}
\@writefile{lof}{\contentsline {figure}{\numberline {2}{\ignorespaces Frequency spectrums of an audio sample. The lines represent different MP3 encodings, sourced from an uncompressed WAV file in the MedleyDB dataset. The $\mu $-law transcode was sourced from the 128kBps encoding and adds noise up to 20kHz.}}{2}{figure.2}\protected@file@percent }
\newlabel{fig:fspecs}{{2}{2}{Frequency spectrums of an audio sample. The lines represent different MP3 encodings, sourced from an uncompressed WAV file in the MedleyDB dataset. The $\mu $-law transcode was sourced from the 128kBps encoding and adds noise up to 20kHz}{figure.2}{}}
\@writefile{toc}{\contentsline {subsection}{\numberline {\mbox  {II-B}}Current limitations}{2}{subsection.2.2}\protected@file@percent }
\citation{seewave,sputnik,thompson_catsim_2020}
\citation{dalessandro_mp3_2009}
\citation{decker_fakin_2019}
\@writefile{toc}{\contentsline {subsection}{\numberline {\mbox  {II-C}}Present study}{3}{subsection.2.3}\protected@file@percent }
\@writefile{toc}{\contentsline {section}{\numberline {III}Methodology}{3}{section.3}\protected@file@percent }
\@writefile{toc}{\contentsline {subsection}{\numberline {\mbox  {III-A}}Proposed technique}{3}{subsection.3.1}\protected@file@percent }
\citation{pop_os}
\citation{ffmpeg20,r_core_team_r_2020}
\citation{kuhn_tidymodels_2020,tidyverse}
\citation{medleydb,musdb18-hq,medleypaper}
\citation{barras2012sox}
\citation{ffmpeg20}
\@writefile{lof}{\contentsline {figure}{\numberline {3}{\ignorespaces An example of compression curves of an individual sample, using the Catsim statistic. Catsim is a 0 - 1 bounded statistical indice, which compares the structural similarity between matrices. These results are from feature generation on the entire combined dataset. The lines are Locally Estimated Scatterplot Smoothing (LOESS) curves, which closely follow and map the positions of the points of data in our dataset. The grey shaded regions are 95\% confidence intervals of the LOESS curves. Catsim is a beta index, which was set up to compare the spectrograms of each re-encoding bitrate to the 320kBps re-encoded bitrate. }}{4}{figure.3}\protected@file@percent }
\newlabel{fig:comp_curves}{{3}{4}{An example of compression curves of an individual sample, using the Catsim statistic. Catsim is a 0 - 1 bounded statistical indice, which compares the structural similarity between matrices. These results are from feature generation on the entire combined dataset. The lines are Locally Estimated Scatterplot Smoothing (LOESS) curves, which closely follow and map the positions of the points of data in our dataset. The grey shaded regions are 95\% confidence intervals of the LOESS curves. Catsim is a beta index, which was set up to compare the spectrograms of each re-encoding bitrate to the 320kBps re-encoded bitrate}{figure.3}{}}
\@writefile{toc}{\contentsline {subsection}{\numberline {\mbox  {III-B}}Experimental design}{4}{subsection.3.2}\protected@file@percent }
\@writefile{toc}{\contentsline {subsection}{\numberline {\mbox  {III-C}}Requirements}{4}{subsection.3.3}\protected@file@percent }
\@writefile{toc}{\contentsline {subsection}{\numberline {\mbox  {III-D}}Dataset}{4}{subsection.3.4}\protected@file@percent }
\citation{bergstra_random_2012}
\citation{vert2004primer}
\@writefile{lof}{\contentsline {figure}{\numberline {4}{\ignorespaces Frequency spectrograms of all MP3 samples in the combined dataset. A: MP3 files at the 128, 192, 256 and 320kBps bitrates. These display frequency cutoffs around 16kHz, 19kHz, 19.5kHz and 20kHz respectively. B: Transcoded 128kBps MP3 samples. The 128kBps - 320kBps samples are visually similar to normal 128kBps samples. The $mu$-law transcodes have noise added up to 20kHz.}}{5}{figure.4}\protected@file@percent }
\newlabel{fig:freq_specs}{{4}{5}{Frequency spectrograms of all MP3 samples in the combined dataset. A: MP3 files at the 128, 192, 256 and 320kBps bitrates. These display frequency cutoffs around 16kHz, 19kHz, 19.5kHz and 20kHz respectively. B: Transcoded 128kBps MP3 samples. The 128kBps - 320kBps samples are visually similar to normal 128kBps samples. The $mu$-law transcodes have noise added up to 20kHz}{figure.4}{}}
\@writefile{toc}{\contentsline {subsection}{\numberline {\mbox  {III-E}}Model training and evaluation}{5}{subsection.3.5}\protected@file@percent }
\@writefile{lof}{\contentsline {figure}{\numberline {5}{\ignorespaces Flow chart of the training strategy for the stacked and XGBoost models. In the outer loop, the dataset was split 75-25\%. The training set was sent seperately to both the inner loop and to build a model, informed by the hyperparameter results from the inner-loop. The model was evaluated on the test set and the results saved. In the inner loop, the data was again split 75-25\% and a model was trained with random hyperparameters. This was evaluated with the remaining test data and after five iterations the best performing set of hyperparameters were sent to the outer loop.}}{5}{figure.5}\protected@file@percent }
\newlabel{fig:mccv_flow}{{5}{5}{Flow chart of the training strategy for the stacked and XGBoost models. In the outer loop, the dataset was split 75-25\%. The training set was sent seperately to both the inner loop and to build a model, informed by the hyperparameter results from the inner-loop. The model was evaluated on the test set and the results saved. In the inner loop, the data was again split 75-25\% and a model was trained with random hyperparameters. This was evaluated with the remaining test data and after five iterations the best performing set of hyperparameters were sent to the outer loop}{figure.5}{}}
\citation{dalessandro_mp3_2009}
\citation{Freund2018}
\citation{Benjamini1995}
\@writefile{toc}{\contentsline {section}{\numberline {IV}Results and Evaluation}{6}{section.4}\protected@file@percent }
\@writefile{toc}{\contentsline {subsection}{\numberline {\mbox  {IV-A}}MP3 bitrate classification}{6}{subsection.4.1}\protected@file@percent }
\@writefile{lot}{\contentsline {table}{\numberline {I}{\ignorespaces Comparison statistics between reference methods and new models}}{6}{table.1}\protected@file@percent }
\newlabel{tab:sigs}{{I}{6}{Comparison statistics between reference methods and new models}{table.1}{}}
\@writefile{toc}{\contentsline {subsection}{\numberline {\mbox  {IV-B}}Performance and comparison for MP3 transcoded samples}{6}{subsection.4.2}\protected@file@percent }
\@writefile{lof}{\contentsline {figure}{\numberline {6}{\ignorespaces Confusion matrices of MP3 bitrate prediction for the different references and models. Results from the Stacked, XGBoost and PSVM models were calculated from pooled hold out sets. FTF results were calculated by directly testing the entire MP3 dataset.}}{7}{figure.6}\protected@file@percent }
\newlabel{fig:conf_mat}{{6}{7}{Confusion matrices of MP3 bitrate prediction for the different references and models. Results from the Stacked, XGBoost and PSVM models were calculated from pooled hold out sets. FTF results were calculated by directly testing the entire MP3 dataset}{figure.6}{}}
\@writefile{toc}{\contentsline {subsection}{\numberline {\mbox  {IV-C}}Feature importance}{7}{subsection.4.3}\protected@file@percent }
\@writefile{toc}{\contentsline {section}{\numberline {V}Discussion}{7}{section.5}\protected@file@percent }
\@writefile{lof}{\contentsline {figure}{\numberline {7}{\ignorespaces Partial confusion matrices of 128kBps MP3 transcodes. The models developed from the proposed approach are compared with the existing FTF and PSVM methods. The originating MP3 bitrate for the transcodes was 128kBps. Overall, the proposed approach does not appear to be as accurate as existing methods at detecting transcodes.}}{7}{figure.7}\protected@file@percent }
\newlabel{fig:conf_trans}{{7}{7}{Partial confusion matrices of 128kBps MP3 transcodes. The models developed from the proposed approach are compared with the existing FTF and PSVM methods. The originating MP3 bitrate for the transcodes was 128kBps. Overall, the proposed approach does not appear to be as accurate as existing methods at detecting transcodes}{figure.7}{}}
\citation{brandenburg_mp3_1999,rfc1654}
\bibcite{pras_2009}{1}
\@writefile{lof}{\contentsline {figure}{\numberline {8}{\ignorespaces Feature importance measures for A: Stacked model and B: XGBoost model. Only the top ten features are shown for each, based on their respective internal importance measures. These measures were taken from the training of the final models over the entire MP3 dataset.}}{8}{figure.8}\protected@file@percent }
\newlabel{fig:feats}{{8}{8}{Feature importance measures for A: Stacked model and B: XGBoost model. Only the top ten features are shown for each, based on their respective internal importance measures. These measures were taken from the training of the final models over the entire MP3 dataset}{figure.8}{}}
\@writefile{toc}{\contentsline {subsection}{\numberline {\mbox  {V-A}}Conclusion}{8}{subsection.5.1}\protected@file@percent }
\@writefile{toc}{\contentsline {section}{References}{8}{section*.1}\protected@file@percent }
\bibcite{brandenburg_mp3_1999}{2}
\bibcite{harris2011do}{3}
\bibcite{hines_perceived_2014}{4}
\bibcite{barras2012sox}{5}
\bibcite{audacity2021}{6}
\bibcite{leon_novel_2011}{7}
\bibcite{hicsonmez_methods_2013}{8}
\bibcite{kandadai_audio_2008}{9}
\bibcite{ssim}{10}
\bibcite{seewave}{11}
\bibcite{rapidbio}{12}
\bibcite{thompson_catsim_2020}{13}
\bibcite{maguire_ghost_2014}{14}
\bibcite{dalessandro_mp3_2009}{15}
\bibcite{hennequin_codec_2017}{16}
\bibcite{decker_fakin_2019}{17}
\bibcite{gar_software_similarity_2019}{18}
\bibcite{dietz2002spectral}{19}
\bibcite{sputnik}{20}
\bibcite{pop_os}{21}
\bibcite{ffmpeg20}{22}
\bibcite{r_core_team_r_2020}{23}
\bibcite{kuhn_tidymodels_2020}{24}
\bibcite{tidyverse}{25}
\bibcite{medleydb}{26}
\bibcite{musdb18-hq}{27}
\bibcite{medleypaper}{28}
\bibcite{bergstra_random_2012}{29}
\bibcite{vert2004primer}{30}
\bibcite{Freund2018}{31}
\bibcite{Benjamini1995}{32}
\bibcite{rfc1654}{33}
\bibcite{Fleiss2003}{34}
\citation{Fleiss2003}
\@writefile{toc}{\contentsline {section}{\numberline {VI}Appendix 1}{10}{section.6}\protected@file@percent }
\@writefile{lot}{\contentsline {table}{\numberline {II}{\ignorespaces Model stability testing for the trained models.}}{10}{table.2}\protected@file@percent }
\newlabel{tab:folds}{{II}{10}{Model stability testing for the trained models}{table.2}{}}
\@writefile{toc}{\contentsline {section}{\numberline {VII}Appendix 2}{10}{section.7}\protected@file@percent }
\@writefile{lot}{\contentsline {table}{\numberline {III}{\ignorespaces List of statistics used for feature generation}}{11}{table.3}\protected@file@percent }
\newlabel{tab:all_feats}{{III}{11}{List of statistics used for feature generation}{table.3}{}}
