.pred,.row,file_br,.config
134.92276000976562,1,128,Preprocessor1_Model1
117.82144927978516,2,128,Preprocessor1_Model1
147.51629638671875,18,128,Preprocessor1_Model1
126.34610748291016,26,128,Preprocessor1_Model1
126.50917053222656,29,128,Preprocessor1_Model1
113.04603576660156,31,128,Preprocessor1_Model1
142.2261505126953,35,128,Preprocessor1_Model1
117.79352569580078,45,128,Preprocessor1_Model1
142.11415100097656,48,128,Preprocessor1_Model1
125.66069793701172,50,128,Preprocessor1_Model1
138.95675659179688,66,128,Preprocessor1_Model1
118.88967895507812,73,128,Preprocessor1_Model1
156.2815704345703,83,128,Preprocessor1_Model1
126.9515380859375,87,128,Preprocessor1_Model1
136.53541564941406,90,128,Preprocessor1_Model1
126.54588317871094,92,128,Preprocessor1_Model1
143.45904541015625,96,128,Preprocessor1_Model1
155.06130981445312,100,128,Preprocessor1_Model1
123.35945129394531,105,128,Preprocessor1_Model1
147.607666015625,127,128,Preprocessor1_Model1
139.07937622070312,128,128,Preprocessor1_Model1
150.15777587890625,129,128,Preprocessor1_Model1
137.44039916992188,131,128,Preprocessor1_Model1
118.9840087890625,135,128,Preprocessor1_Model1
144.54629516601562,136,128,Preprocessor1_Model1
151.1022491455078,137,128,Preprocessor1_Model1
121.19754791259766,145,128,Preprocessor1_Model1
130.3592987060547,146,128,Preprocessor1_Model1
129.59906005859375,148,128,Preprocessor1_Model1
152.76303100585938,153,128,Preprocessor1_Model1
171.0511474609375,157,128,Preprocessor1_Model1
171.2913360595703,165,128,Preprocessor1_Model1
118.93574523925781,175,128,Preprocessor1_Model1
128.7705535888672,182,128,Preprocessor1_Model1
149.14044189453125,183,128,Preprocessor1_Model1
179.41404724121094,185,128,Preprocessor1_Model1
130.36392211914062,189,128,Preprocessor1_Model1
115.45233917236328,194,128,Preprocessor1_Model1
137.56617736816406,201,128,Preprocessor1_Model1
174.50076293945312,212,128,Preprocessor1_Model1
134.1730194091797,216,128,Preprocessor1_Model1
124.7376937866211,218,128,Preprocessor1_Model1
138.23399353027344,221,128,Preprocessor1_Model1
145.92242431640625,235,128,Preprocessor1_Model1
161.90228271484375,237,128,Preprocessor1_Model1
140.853515625,238,128,Preprocessor1_Model1
165.5898895263672,240,128,Preprocessor1_Model1
120.93595886230469,247,128,Preprocessor1_Model1
151.2020721435547,250,128,Preprocessor1_Model1
136.38824462890625,252,128,Preprocessor1_Model1
183.92709350585938,253,128,Preprocessor1_Model1
138.4141845703125,273,128,Preprocessor1_Model1
100.32077026367188,276,128,Preprocessor1_Model1
104.6909408569336,282,128,Preprocessor1_Model1
104.44693756103516,286,128,Preprocessor1_Model1
159.53762817382812,290,128,Preprocessor1_Model1
135.20938110351562,292,128,Preprocessor1_Model1
136.61471557617188,300,128,Preprocessor1_Model1
198.0114288330078,308,192,Preprocessor1_Model1
186.17153930664062,312,192,Preprocessor1_Model1
211.1208038330078,316,192,Preprocessor1_Model1
198.16355895996094,321,192,Preprocessor1_Model1
191.64251708984375,324,192,Preprocessor1_Model1
193.4979248046875,326,192,Preprocessor1_Model1
192.75318908691406,327,192,Preprocessor1_Model1
195.6865997314453,342,192,Preprocessor1_Model1
192.4094696044922,346,192,Preprocessor1_Model1
190.00869750976562,356,192,Preprocessor1_Model1
185.28909301757812,368,192,Preprocessor1_Model1
195.77867126464844,371,192,Preprocessor1_Model1
191.4965362548828,382,192,Preprocessor1_Model1
187.1567840576172,393,192,Preprocessor1_Model1
190.35096740722656,406,192,Preprocessor1_Model1
219.34979248046875,410,192,Preprocessor1_Model1
198.51182556152344,414,192,Preprocessor1_Model1
187.43556213378906,416,192,Preprocessor1_Model1
273.1741943359375,422,192,Preprocessor1_Model1
253.81549072265625,427,192,Preprocessor1_Model1
189.43357849121094,434,192,Preprocessor1_Model1
194.0845947265625,440,192,Preprocessor1_Model1
192.39268493652344,446,192,Preprocessor1_Model1
201.25218200683594,450,192,Preprocessor1_Model1
185.31146240234375,457,192,Preprocessor1_Model1
193.14613342285156,460,192,Preprocessor1_Model1
197.05801391601562,465,192,Preprocessor1_Model1
194.4016876220703,472,192,Preprocessor1_Model1
235.4342803955078,484,192,Preprocessor1_Model1
187.78843688964844,495,192,Preprocessor1_Model1
192.82107543945312,499,192,Preprocessor1_Model1
191.92507934570312,504,192,Preprocessor1_Model1
218.302490234375,506,192,Preprocessor1_Model1
186.28799438476562,512,192,Preprocessor1_Model1
182.78262329101562,516,192,Preprocessor1_Model1
172.8286590576172,527,192,Preprocessor1_Model1
192.00091552734375,539,192,Preprocessor1_Model1
181.00830078125,542,192,Preprocessor1_Model1
172.93101501464844,552,192,Preprocessor1_Model1
195.4143829345703,556,192,Preprocessor1_Model1
270.9311828613281,563,192,Preprocessor1_Model1
189.6812744140625,565,192,Preprocessor1_Model1
216.2437286376953,568,192,Preprocessor1_Model1
202.8162078857422,579,192,Preprocessor1_Model1
192.93673706054688,595,192,Preprocessor1_Model1
211.41302490234375,596,192,Preprocessor1_Model1
275.6737976074219,603,256,Preprocessor1_Model1
254.89768981933594,607,256,Preprocessor1_Model1
279.2304992675781,608,256,Preprocessor1_Model1
289.5226135253906,611,256,Preprocessor1_Model1
255.21954345703125,613,256,Preprocessor1_Model1
257.1925354003906,614,256,Preprocessor1_Model1
276.40203857421875,616,256,Preprocessor1_Model1
287.1553039550781,618,256,Preprocessor1_Model1
283.3852844238281,619,256,Preprocessor1_Model1
278.4241943359375,621,256,Preprocessor1_Model1
251.39291381835938,629,256,Preprocessor1_Model1
265.74334716796875,635,256,Preprocessor1_Model1
264.29095458984375,639,256,Preprocessor1_Model1
266.7316589355469,646,256,Preprocessor1_Model1
261.0424499511719,654,256,Preprocessor1_Model1
253.51512145996094,658,256,Preprocessor1_Model1
277.3684997558594,659,256,Preprocessor1_Model1
275.360595703125,665,256,Preprocessor1_Model1
307.12469482421875,670,256,Preprocessor1_Model1
272.3869323730469,674,256,Preprocessor1_Model1
282.71588134765625,679,256,Preprocessor1_Model1
273.9975280761719,680,256,Preprocessor1_Model1
284.83990478515625,689,256,Preprocessor1_Model1
295.67120361328125,690,256,Preprocessor1_Model1
258.3691711425781,692,256,Preprocessor1_Model1
251.66763305664062,693,256,Preprocessor1_Model1
259.2271728515625,695,256,Preprocessor1_Model1
265.9844055175781,696,256,Preprocessor1_Model1
273.0405578613281,697,256,Preprocessor1_Model1
257.93414306640625,704,256,Preprocessor1_Model1
275.8359069824219,718,256,Preprocessor1_Model1
251.1726837158203,723,256,Preprocessor1_Model1
321.6521911621094,725,256,Preprocessor1_Model1
274.05645751953125,727,256,Preprocessor1_Model1
261.6892395019531,731,256,Preprocessor1_Model1
268.4068298339844,740,256,Preprocessor1_Model1
309.25665283203125,749,256,Preprocessor1_Model1
216.4208526611328,752,256,Preprocessor1_Model1
263.85638427734375,755,256,Preprocessor1_Model1
294.59326171875,759,256,Preprocessor1_Model1
299.5721435546875,763,256,Preprocessor1_Model1
268.0695495605469,770,256,Preprocessor1_Model1
266.056640625,773,256,Preprocessor1_Model1
246.87350463867188,779,256,Preprocessor1_Model1
213.2418975830078,783,256,Preprocessor1_Model1
224.8839569091797,785,256,Preprocessor1_Model1
310.0281982421875,787,256,Preprocessor1_Model1
247.92042541503906,792,256,Preprocessor1_Model1
297.4625549316406,795,256,Preprocessor1_Model1
286.8616943359375,796,256,Preprocessor1_Model1
269.45916748046875,798,256,Preprocessor1_Model1
275.527099609375,806,256,Preprocessor1_Model1
294.283203125,809,256,Preprocessor1_Model1
281.1940612792969,811,256,Preprocessor1_Model1
277.228515625,816,256,Preprocessor1_Model1
295.73907470703125,818,256,Preprocessor1_Model1
286.88671875,819,256,Preprocessor1_Model1
269.0946960449219,825,256,Preprocessor1_Model1
293.0323486328125,830,256,Preprocessor1_Model1
284.0950927734375,834,256,Preprocessor1_Model1
280.66619873046875,836,256,Preprocessor1_Model1
274.41217041015625,839,256,Preprocessor1_Model1
271.5809326171875,844,256,Preprocessor1_Model1
257.75628662109375,852,256,Preprocessor1_Model1
266.6463623046875,861,256,Preprocessor1_Model1
258.53863525390625,870,256,Preprocessor1_Model1
249.29685974121094,877,256,Preprocessor1_Model1
277.8724670410156,879,256,Preprocessor1_Model1
319.125,880,256,Preprocessor1_Model1
278.96295166015625,884,256,Preprocessor1_Model1
231.8359832763672,886,256,Preprocessor1_Model1
277.3681640625,888,256,Preprocessor1_Model1
237.91668701171875,889,256,Preprocessor1_Model1
268.1116943359375,890,256,Preprocessor1_Model1
259.6318054199219,891,256,Preprocessor1_Model1
244.0365447998047,894,256,Preprocessor1_Model1
296.0867919921875,897,256,Preprocessor1_Model1
283.07476806640625,898,256,Preprocessor1_Model1
315.3393859863281,913,320,Preprocessor1_Model1
305.766845703125,920,320,Preprocessor1_Model1
300.85675048828125,922,320,Preprocessor1_Model1
326.5410461425781,930,320,Preprocessor1_Model1
308.3751220703125,933,320,Preprocessor1_Model1
321.1619567871094,939,320,Preprocessor1_Model1
302.7215576171875,940,320,Preprocessor1_Model1
304.6390075683594,943,320,Preprocessor1_Model1
303.8262939453125,954,320,Preprocessor1_Model1
319.47161865234375,956,320,Preprocessor1_Model1
281.15020751953125,964,320,Preprocessor1_Model1
285.1731872558594,977,320,Preprocessor1_Model1
318.82562255859375,978,320,Preprocessor1_Model1
303.8117370605469,979,320,Preprocessor1_Model1
306.7538146972656,981,320,Preprocessor1_Model1
311.37445068359375,985,320,Preprocessor1_Model1
307.97467041015625,989,320,Preprocessor1_Model1
308.0015869140625,997,320,Preprocessor1_Model1
259.19989013671875,1009,320,Preprocessor1_Model1
296.4839172363281,1024,320,Preprocessor1_Model1
323.8504638671875,1025,320,Preprocessor1_Model1
229.6547393798828,1028,320,Preprocessor1_Model1
300.4485778808594,1040,320,Preprocessor1_Model1
246.8887176513672,1049,320,Preprocessor1_Model1
307.2447509765625,1053,320,Preprocessor1_Model1
284.0142822265625,1055,320,Preprocessor1_Model1
282.2198486328125,1061,320,Preprocessor1_Model1
326.6651916503906,1071,320,Preprocessor1_Model1
329.0525207519531,1074,320,Preprocessor1_Model1
227.66123962402344,1080,320,Preprocessor1_Model1
248.51986694335938,1082,320,Preprocessor1_Model1
283.3973388671875,1086,320,Preprocessor1_Model1
266.60357666015625,1090,320,Preprocessor1_Model1
321.1412048339844,1092,320,Preprocessor1_Model1
258.2880554199219,1097,320,Preprocessor1_Model1
263.002685546875,1099,320,Preprocessor1_Model1
226.47462463378906,1105,320,Preprocessor1_Model1
316.5277099609375,1114,320,Preprocessor1_Model1
236.09738159179688,1117,320,Preprocessor1_Model1
297.0045166015625,1123,320,Preprocessor1_Model1
312.31317138671875,1137,320,Preprocessor1_Model1
311.92376708984375,1140,320,Preprocessor1_Model1
301.21624755859375,1143,320,Preprocessor1_Model1
303.8798828125,1144,320,Preprocessor1_Model1
320.0809326171875,1149,320,Preprocessor1_Model1
297.5878601074219,1162,320,Preprocessor1_Model1
318.4273376464844,1165,320,Preprocessor1_Model1
314.9913330078125,1169,320,Preprocessor1_Model1
313.2778015136719,1174,320,Preprocessor1_Model1
236.78407287597656,1176,320,Preprocessor1_Model1
286.04034423828125,1177,320,Preprocessor1_Model1
279.5479736328125,1179,320,Preprocessor1_Model1
274.8351745605469,1183,320,Preprocessor1_Model1
304.96197509765625,1191,320,Preprocessor1_Model1
311.4302062988281,1192,320,Preprocessor1_Model1
299.53717041015625,1195,320,Preprocessor1_Model1
310.01885986328125,1196,320,Preprocessor1_Model1
