file,slice,xg,stack,ftf
x128k_medley_1.mp3,192,128,320,128
x128k_medley_10.mp3,128,192,320,128
x128k_medley_11.mp3,192,128,320,128
x128k_medley_12.mp3,128,192,320,128
x128k_medley_13.mp3,128,128,320,128
x128k_medley_14.mp3,128,192,320,128
x128k_medley_15.mp3,128,192,320,128
x128k_medley_16.mp3,192,128,320,128
x128k_medley_17.mp3,128,128,320,128
x128k_medley_18.mp3,192,128,320,128
x128k_medley_19.mp3,192,128,320,128
x128k_medley_2.mp3,128,192,320,128
x128k_medley_20.mp3,128,128,320,128
x128k_medley_21.mp3,128,128,320,128
x128k_medley_22.mp3,128,128,320,128
x128k_medley_23.mp3,192,128,256,128
x128k_medley_24.mp3,192,128,256,128
x128k_medley_25.mp3,128,128,256,128
x128k_medley_26.mp3,128,128,256,128
x128k_medley_27.mp3,128,128,320,128
x128k_medley_28.mp3,128,128,320,128
x128k_medley_29.mp3,128,128,320,128
x128k_medley_3.mp3,128,128,320,128
x128k_medley_30.mp3,128,128,320,128
x128k_medley_31.mp3,128,128,320,128
x128k_medley_32.mp3,128,192,320,128
x128k_medley_33.mp3,128,128,320,128
x128k_medley_34.mp3,192,128,320,128
x128k_medley_35.mp3,128,192,320,128
x128k_medley_36.mp3,128,128,320,128
x128k_medley_37.mp3,128,128,320,128
x128k_medley_38.mp3,128,128,320,128
x128k_medley_39.mp3,128,128,320,128
x128k_medley_4.mp3,128,192,320,128
x128k_medley_40.mp3,128,128,320,128
x128k_medley_41.mp3,192,128,320,128
x128k_medley_42.mp3,128,128,320,128
x128k_medley_43.mp3,128,128,320,128
x128k_medley_44.mp3,128,192,320,128
x128k_medley_45.mp3,128,128,320,128
x128k_medley_46.mp3,128,128,320,128
x128k_medley_47.mp3,128,128,320,128
x128k_medley_48.mp3,128,192,320,128
x128k_medley_49.mp3,128,128,320,128
x128k_medley_5.mp3,128,128,320,128
x128k_medley_50.mp3,128,128,320,128
x128k_medley_51.mp3,128,128,320,128
x128k_medley_52.mp3,128,128,320,128
x128k_medley_53.mp3,128,128,320,128
x128k_medley_54.mp3,128,128,320,128
x128k_medley_55.mp3,128,128,320,128
x128k_medley_56.mp3,128,128,320,128
x128k_medley_57.mp3,128,128,320,128
x128k_medley_58.mp3,128,128,320,128
x128k_medley_59.mp3,128,128,320,128
x128k_medley_6.mp3,128,128,320,128
x128k_medley_60.mp3,128,128,256,128
x128k_medley_61.mp3,128,192,320,128
x128k_medley_62.mp3,128,128,320,128
x128k_medley_63.mp3,128,128,320,128
x128k_medley_64.mp3,128,128,320,128
x128k_medley_65.mp3,128,192,320,128
x128k_medley_66.mp3,192,128,320,128
x128k_medley_67.mp3,128,128,320,128
x128k_medley_68.mp3,192,128,320,128
x128k_medley_69.mp3,128,128,320,128
x128k_medley_7.mp3,128,128,320,128
x128k_medley_70.mp3,128,128,320,128
x128k_medley_71.mp3,128,128,320,128
x128k_medley_72.mp3,128,192,320,128
x128k_medley_73.mp3,128,128,320,128
x128k_medley_74.mp3,128,128,320,128
x128k_medley_8.mp3,128,192,320,128
x128k_medley_9.mp3,128,128,320,128
x128k_musdb_1.mp3,128,128,320,128
x128k_musdb_10.mp3,128,192,320,128
x128k_musdb_11.mp3,128,128,320,128
x128k_musdb_12.mp3,128,128,320,128
x128k_musdb_13.mp3,128,128,320,128
x128k_musdb_14.mp3,128,128,320,128
x128k_musdb_15.mp3,128,128,320,128
x128k_musdb_16.mp3,128,192,320,128
x128k_musdb_17.mp3,128,128,320,128
x128k_musdb_18.mp3,128,128,320,128
x128k_musdb_19.mp3,128,192,320,128
x128k_musdb_2.mp3,128,128,320,128
x128k_musdb_20.mp3,128,128,320,128
x128k_musdb_21.mp3,128,128,320,128
x128k_musdb_22.mp3,128,128,320,128
x128k_musdb_23.mp3,128,128,320,128
x128k_musdb_24.mp3,128,192,320,128
x128k_musdb_25.mp3,128,192,320,128
x128k_musdb_26.mp3,128,128,320,128
x128k_musdb_27.mp3,128,128,320,128
x128k_musdb_28.mp3,128,128,320,128
x128k_musdb_29.mp3,128,128,256,128
x128k_musdb_3.mp3,128,128,320,128
x128k_musdb_30.mp3,128,128,320,128
x128k_musdb_31.mp3,128,128,320,128
x128k_musdb_32.mp3,128,128,320,128
x128k_musdb_33.mp3,128,128,320,128
x128k_musdb_34.mp3,128,128,320,128
x128k_musdb_35.mp3,128,128,320,128
x128k_musdb_36.mp3,128,128,320,128
x128k_musdb_37.mp3,128,192,320,128
x128k_musdb_38.mp3,128,192,320,128
x128k_musdb_39.mp3,128,192,320,128
x128k_musdb_4.mp3,128,128,320,128
x128k_musdb_40.mp3,128,192,320,128
x128k_musdb_41.mp3,128,128,320,128
x128k_musdb_42.mp3,128,128,320,128
x128k_musdb_43.mp3,128,192,320,128
x128k_musdb_44.mp3,128,128,320,128
x128k_musdb_45.mp3,128,128,320,128
x128k_musdb_46.mp3,128,128,320,128
x128k_musdb_47.mp3,128,128,320,128
x128k_musdb_48.mp3,128,128,320,128
x128k_musdb_49.mp3,128,128,320,128
x128k_musdb_5.mp3,128,192,320,128
x128k_musdb_50.mp3,128,128,320,128
x128k_musdb_51.mp3,128,128,320,128
x128k_musdb_52.mp3,128,128,320,128
x128k_musdb_53.mp3,128,128,320,128
x128k_musdb_6.mp3,128,128,320,128
x128k_musdb_7.mp3,128,192,320,128
x128k_musdb_8.mp3,128,128,320,128
x128k_musdb_9.mp3,128,192,320,128
