%!PS-Adobe-2.0 EPSF-2.0
%%Title: /home/jam/Documents/hdsda/project/diagrams/Pipeline.dia
%%Creator: Dia v0.97+git
%%CreationDate: Sun Apr 11 20:45:08 2021
%%For: jam
%%Orientation: Portrait
%%Magnification: 1.0000
%%BoundingBox: 0 0 329 297
%%BeginSetup
%%EndSetup
%%EndComments
%%BeginProlog
[ /.notdef /.notdef /.notdef /.notdef /.notdef /.notdef /.notdef /.notdef /.notdef /.notdef
/.notdef /.notdef /.notdef /.notdef /.notdef /.notdef /.notdef /.notdef /.notdef /.notdef
/.notdef /.notdef /.notdef /.notdef /.notdef /.notdef /.notdef /.notdef /.notdef /.notdef
/.notdef /.notdef /space /exclam /quotedbl /numbersign /dollar /percent /ampersand /quoteright
/parenleft /parenright /asterisk /plus /comma /hyphen /period /slash /zero /one
/two /three /four /five /six /seven /eight /nine /colon /semicolon
/less /equal /greater /question /at /A /B /C /D /E
/F /G /H /I /J /K /L /M /N /O
/P /Q /R /S /T /U /V /W /X /Y
/Z /bracketleft /backslash /bracketright /asciicircum /underscore /quoteleft /a /b /c
/d /e /f /g /h /i /j /k /l /m
/n /o /p /q /r /s /t /u /v /w
/x /y /z /braceleft /bar /braceright /asciitilde /.notdef /.notdef /.notdef
/.notdef /.notdef /.notdef /.notdef /.notdef /.notdef /.notdef /.notdef /.notdef /.notdef
/.notdef /.notdef /.notdef /.notdef /.notdef /.notdef /.notdef /.notdef /.notdef /.notdef
/.notdef /.notdef /.notdef /.notdef /.notdef /.notdef /.notdef /.notdef /.notdef /.notdef
/space /exclamdown /cent /sterling /currency /yen /brokenbar /section /dieresis /copyright
/ordfeminine /guillemotleft /logicalnot /hyphen /registered /macron /degree /plusminus /twosuperior /threesuperior
/acute /mu /paragraph /periodcentered /cedilla /onesuperior /ordmasculine /guillemotright /onequarter /onehalf
/threequarters /questiondown /Agrave /Aacute /Acircumflex /Atilde /Adieresis /Aring /AE /Ccedilla
/Egrave /Eacute /Ecircumflex /Edieresis /Igrave /Iacute /Icircumflex /Idieresis /Eth /Ntilde
/Ograve /Oacute /Ocircumflex /Otilde /Odieresis /multiply /Oslash /Ugrave /Uacute /Ucircumflex
/Udieresis /Yacute /Thorn /germandbls /agrave /aacute /acircumflex /atilde /adieresis /aring
/ae /ccedilla /egrave /eacute /ecircumflex /edieresis /igrave /iacute /icircumflex /idieresis
/eth /ntilde /ograve /oacute /ocircumflex /otilde /odieresis /divide /oslash /ugrave
/uacute /ucircumflex /udieresis /yacute /thorn /ydieresis] /isolatin1encoding exch def
/cp {closepath} bind def
/c {curveto} bind def
/f {fill} bind def
/a {arc} bind def
/ef {eofill} bind def
/ex {exch} bind def
/gr {grestore} bind def
/gs {gsave} bind def
/sa {save} bind def
/rs {restore} bind def
/l {lineto} bind def
/m {moveto} bind def
/rm {rmoveto} bind def
/n {newpath} bind def
/s {stroke} bind def
/sh {show} bind def
/slc {setlinecap} bind def
/slj {setlinejoin} bind def
/slw {setlinewidth} bind def
/srgb {setrgbcolor} bind def
/rot {rotate} bind def
/sc {scale} bind def
/sd {setdash} bind def
/ff {findfont} bind def
/sf {setfont} bind def
/scf {scalefont} bind def
/sw {stringwidth pop} bind def
/tr {translate} bind def

/ellipsedict 8 dict def
ellipsedict /mtrx matrix put
/ellipse
{ ellipsedict begin
   /endangle exch def
   /startangle exch def
   /yrad exch def
   /xrad exch def
   /y exch def
   /x exch def   /savematrix mtrx currentmatrix def
   x y tr xrad yrad sc
   0 0 1 startangle endangle arc
   savematrix setmatrix
   end
} def

/mergeprocs {
dup length
3 -1 roll
dup
length
dup
5 1 roll
3 -1 roll
add
array cvx
dup
3 -1 roll
0 exch
putinterval
dup
4 2 roll
putinterval
} bind def
/Times-Roman-latin1
    /Times-Roman findfont
    dup length dict begin
	{1 index /FID ne {def} {pop pop} ifelse} forall
	/Encoding isolatin1encoding def
    currentdict end
definefont pop
/Times-Italic-latin1
    /Times-Italic findfont
    dup length dict begin
	{1 index /FID ne {def} {pop pop} ifelse} forall
	/Encoding isolatin1encoding def
    currentdict end
definefont pop
/Times-Bold-latin1
    /Times-Bold findfont
    dup length dict begin
	{1 index /FID ne {def} {pop pop} ifelse} forall
	/Encoding isolatin1encoding def
    currentdict end
definefont pop
/Times-BoldItalic-latin1
    /Times-BoldItalic findfont
    dup length dict begin
	{1 index /FID ne {def} {pop pop} ifelse} forall
	/Encoding isolatin1encoding def
    currentdict end
definefont pop
/AvantGarde-Gothic-latin1
    /AvantGarde-Gothic findfont
    dup length dict begin
	{1 index /FID ne {def} {pop pop} ifelse} forall
	/Encoding isolatin1encoding def
    currentdict end
definefont pop
/AvantGarde-BookOblique-latin1
    /AvantGarde-BookOblique findfont
    dup length dict begin
	{1 index /FID ne {def} {pop pop} ifelse} forall
	/Encoding isolatin1encoding def
    currentdict end
definefont pop
/AvantGarde-Demi-latin1
    /AvantGarde-Demi findfont
    dup length dict begin
	{1 index /FID ne {def} {pop pop} ifelse} forall
	/Encoding isolatin1encoding def
    currentdict end
definefont pop
/AvantGarde-DemiOblique-latin1
    /AvantGarde-DemiOblique findfont
    dup length dict begin
	{1 index /FID ne {def} {pop pop} ifelse} forall
	/Encoding isolatin1encoding def
    currentdict end
definefont pop
/Bookman-Light-latin1
    /Bookman-Light findfont
    dup length dict begin
	{1 index /FID ne {def} {pop pop} ifelse} forall
	/Encoding isolatin1encoding def
    currentdict end
definefont pop
/Bookman-LightItalic-latin1
    /Bookman-LightItalic findfont
    dup length dict begin
	{1 index /FID ne {def} {pop pop} ifelse} forall
	/Encoding isolatin1encoding def
    currentdict end
definefont pop
/Bookman-Demi-latin1
    /Bookman-Demi findfont
    dup length dict begin
	{1 index /FID ne {def} {pop pop} ifelse} forall
	/Encoding isolatin1encoding def
    currentdict end
definefont pop
/Bookman-DemiItalic-latin1
    /Bookman-DemiItalic findfont
    dup length dict begin
	{1 index /FID ne {def} {pop pop} ifelse} forall
	/Encoding isolatin1encoding def
    currentdict end
definefont pop
/Courier-latin1
    /Courier findfont
    dup length dict begin
	{1 index /FID ne {def} {pop pop} ifelse} forall
	/Encoding isolatin1encoding def
    currentdict end
definefont pop
/Courier-Oblique-latin1
    /Courier-Oblique findfont
    dup length dict begin
	{1 index /FID ne {def} {pop pop} ifelse} forall
	/Encoding isolatin1encoding def
    currentdict end
definefont pop
/Courier-Bold-latin1
    /Courier-Bold findfont
    dup length dict begin
	{1 index /FID ne {def} {pop pop} ifelse} forall
	/Encoding isolatin1encoding def
    currentdict end
definefont pop
/Courier-BoldOblique-latin1
    /Courier-BoldOblique findfont
    dup length dict begin
	{1 index /FID ne {def} {pop pop} ifelse} forall
	/Encoding isolatin1encoding def
    currentdict end
definefont pop
/Helvetica-latin1
    /Helvetica findfont
    dup length dict begin
	{1 index /FID ne {def} {pop pop} ifelse} forall
	/Encoding isolatin1encoding def
    currentdict end
definefont pop
/Helvetica-Oblique-latin1
    /Helvetica-Oblique findfont
    dup length dict begin
	{1 index /FID ne {def} {pop pop} ifelse} forall
	/Encoding isolatin1encoding def
    currentdict end
definefont pop
/Helvetica-Bold-latin1
    /Helvetica-Bold findfont
    dup length dict begin
	{1 index /FID ne {def} {pop pop} ifelse} forall
	/Encoding isolatin1encoding def
    currentdict end
definefont pop
/Helvetica-BoldOblique-latin1
    /Helvetica-BoldOblique findfont
    dup length dict begin
	{1 index /FID ne {def} {pop pop} ifelse} forall
	/Encoding isolatin1encoding def
    currentdict end
definefont pop
/Helvetica-Narrow-latin1
    /Helvetica-Narrow findfont
    dup length dict begin
	{1 index /FID ne {def} {pop pop} ifelse} forall
	/Encoding isolatin1encoding def
    currentdict end
definefont pop
/Helvetica-Narrow-Oblique-latin1
    /Helvetica-Narrow-Oblique findfont
    dup length dict begin
	{1 index /FID ne {def} {pop pop} ifelse} forall
	/Encoding isolatin1encoding def
    currentdict end
definefont pop
/Helvetica-Narrow-Bold-latin1
    /Helvetica-Narrow-Bold findfont
    dup length dict begin
	{1 index /FID ne {def} {pop pop} ifelse} forall
	/Encoding isolatin1encoding def
    currentdict end
definefont pop
/Helvetica-Narrow-BoldOblique-latin1
    /Helvetica-Narrow-BoldOblique findfont
    dup length dict begin
	{1 index /FID ne {def} {pop pop} ifelse} forall
	/Encoding isolatin1encoding def
    currentdict end
definefont pop
/NewCenturySchlbk-Roman-latin1
    /NewCenturySchlbk-Roman findfont
    dup length dict begin
	{1 index /FID ne {def} {pop pop} ifelse} forall
	/Encoding isolatin1encoding def
    currentdict end
definefont pop
/NewCenturySchlbk-Italic-latin1
    /NewCenturySchlbk-Italic findfont
    dup length dict begin
	{1 index /FID ne {def} {pop pop} ifelse} forall
	/Encoding isolatin1encoding def
    currentdict end
definefont pop
/NewCenturySchlbk-Bold-latin1
    /NewCenturySchlbk-Bold findfont
    dup length dict begin
	{1 index /FID ne {def} {pop pop} ifelse} forall
	/Encoding isolatin1encoding def
    currentdict end
definefont pop
/NewCenturySchlbk-BoldItalic-latin1
    /NewCenturySchlbk-BoldItalic findfont
    dup length dict begin
	{1 index /FID ne {def} {pop pop} ifelse} forall
	/Encoding isolatin1encoding def
    currentdict end
definefont pop
/Palatino-Roman-latin1
    /Palatino-Roman findfont
    dup length dict begin
	{1 index /FID ne {def} {pop pop} ifelse} forall
	/Encoding isolatin1encoding def
    currentdict end
definefont pop
/Palatino-Italic-latin1
    /Palatino-Italic findfont
    dup length dict begin
	{1 index /FID ne {def} {pop pop} ifelse} forall
	/Encoding isolatin1encoding def
    currentdict end
definefont pop
/Palatino-Bold-latin1
    /Palatino-Bold findfont
    dup length dict begin
	{1 index /FID ne {def} {pop pop} ifelse} forall
	/Encoding isolatin1encoding def
    currentdict end
definefont pop
/Palatino-BoldItalic-latin1
    /Palatino-BoldItalic findfont
    dup length dict begin
	{1 index /FID ne {def} {pop pop} ifelse} forall
	/Encoding isolatin1encoding def
    currentdict end
definefont pop
/Symbol-latin1
    /Symbol findfont
definefont pop
/ZapfChancery-MediumItalic-latin1
    /ZapfChancery-MediumItalic findfont
    dup length dict begin
	{1 index /FID ne {def} {pop pop} ifelse} forall
	/Encoding isolatin1encoding def
    currentdict end
definefont pop
/ZapfDingbats-latin1
    /ZapfDingbats findfont
    dup length dict begin
	{1 index /FID ne {def} {pop pop} ifelse} forall
	/Encoding isolatin1encoding def
    currentdict end
definefont pop
28.346000 -28.346000 scale
-1.086360 -10.681139 translate
%%EndProlog


0.100000 slw
[] 0 sd
0 slc
0 slj
0.100000 slw
0 slc
0 slj
[] 0 sd
1.000000 1.000000 1.000000 srgb
n 1.484943 1.177993 m 2.679276 1.177993 l 2.844179 1.177993 2.977859 1.378527 2.977859 1.625898 c 2.977859 1.873269 2.844179 2.073802 2.679276 2.073802 c 1.484943 2.073802 l 1.320040 2.073802 1.186360 1.873269 1.186360 1.625898 c 1.186360 1.378527 1.320040 1.177993 1.484943 1.177993 c ef
0.000000 0.000000 0.000000 srgb
n 1.484943 1.177993 m 2.679276 1.177993 l 2.844179 1.177993 2.977859 1.378527 2.977859 1.625898 c 2.977859 1.873269 2.844179 2.073802 2.679276 2.073802 c 1.484943 2.073802 l 1.320040 2.073802 1.186360 1.873269 1.186360 1.625898 c 1.186360 1.378527 1.320040 1.177993 1.484943 1.177993 c s
/Courier-latin1 ff 0.296333 scf sf
(Start) dup sw 2 div 2.082109 ex sub 1.561902 m
 gs 1 -1 sc sh gr
0.100000 slw
[] 0 sd
0 slc
0 slj
0.100000 slw
0 slc
0 slj
[] 0 sd
1.000000 1.000000 1.000000 srgb
n 4.143990 0.315121 m 6.991212 0.315121 l 6.991212 2.948454 l 4.143990 2.948454 l ef
0.000000 0.000000 0.000000 srgb
n 4.143990 0.315121 m 6.991212 0.315121 l 6.991212 2.948454 l 4.143990 2.948454 l cp s
0 slc
0 slj
[] 0 sd
n 4.428712 0.315121 m 4.428712 2.948454 l s
0 slc
0 slj
[] 0 sd
n 4.143990 0.578454 m 6.991212 0.578454 l s
/Courier-latin1 ff 0.296333 scf sf
(Lossless) dup sw 2 div 5.709962 ex sub 1.276125 m
 gs 1 -1 sc sh gr
(WAV files) dup sw 2 div 5.709962 ex sub 1.699458 m
 gs 1 -1 sc sh gr
(\(n = 100\)) dup sw 2 div 5.709962 ex sub 2.122791 m
 gs 1 -1 sc sh gr
/Helvetica-latin1 ff 0.560000 scf sf
0.100000 slw
[] 0 sd
0 slj
1.000000 1.000000 1.000000 srgb
n 8.516036 0.454510 m 12.611036 0.454510 l 12.611036 2.824510 l 8.516036 2.824510 l ef
0.000000 0.000000 0.000000 srgb
n 8.516036 0.454510 m 12.611036 0.454510 l 12.611036 2.824510 l 8.516036 2.824510 l cp s
/Courier-latin1 ff 0.296333 scf sf
(MP3 encoding) dup sw 2 div 10.563536 ex sub 1.575507 m
 gs 1 -1 sc sh gr
0.100000 slw
[] 0 sd
0 slc
n 2.977859 1.625898 m 3.593997 1.629010 l s
0.100000 slw
[] 0 sd
0 slj
n 3.592735 1.879006 m 4.093991 1.631535 l 3.595260 1.379013 l ef
n 3.592735 1.879006 m 4.093991 1.631535 l 3.595260 1.379013 l cp s
0.100000 slw
[] 0 sd
0 slc
n 7.041364 1.634723 m 7.966039 1.637725 l s
0.100000 slw
[] 0 sd
0 slj
n 7.965227 1.887723 m 8.466036 1.639348 l 7.966850 1.387726 l ef
n 7.965227 1.887723 m 8.466036 1.639348 l 7.966850 1.387726 l cp s
0.100000 slw
[] 0 sd
0 slc
0 slj
0.100000 slw
0 slc
0 slj
[] 0 sd
1.000000 1.000000 1.000000 srgb
n 8.599324 3.975178 m 12.530119 3.975178 l 12.530119 6.334105 l 8.599324 6.334105 l ef
0.000000 0.000000 0.000000 srgb
n 8.599324 3.975178 m 12.530119 3.975178 l 12.530119 6.334105 l 8.599324 6.334105 l cp s
0 slc
0 slj
[] 0 sd
n 8.992403 3.975178 m 8.992403 6.334105 l s
0 slc
0 slj
[] 0 sd
n 8.599324 4.211071 m 12.530119 4.211071 l s
/Courier-latin1 ff 0.296333 scf sf
(MP3 files at 128,) dup sw 2 div 10.761261 ex sub 4.573592 m
 gs 1 -1 sc sh gr
(192, 256 and) dup sw 2 div 10.761261 ex sub 4.996925 m
 gs 1 -1 sc sh gr
(320kBps) dup sw 2 div 10.761261 ex sub 5.420258 m
 gs 1 -1 sc sh gr
(\(n = 400\)) dup sw 2 div 10.761261 ex sub 5.843591 m
 gs 1 -1 sc sh gr
0.100000 slw
[] 0 sd
0 slc
n 10.563536 2.824510 m 10.564155 3.425178 l s
0.100000 slw
[] 0 sd
0 slj
n 10.314155 3.425436 m 10.564670 3.925178 l 10.814155 3.424921 l ef
n 10.314155 3.425436 m 10.564670 3.925178 l 10.814155 3.424921 l cp s
0.100000 slw
[] 0 sd
0 slj
1.000000 1.000000 1.000000 srgb
n 2.335949 4.004871 m 7.090949 4.004871 l 7.090949 6.374871 l 2.335949 6.374871 l ef
0.000000 0.000000 0.000000 srgb
n 2.335949 4.004871 m 7.090949 4.004871 l 7.090949 6.374871 l 2.335949 6.374871 l cp s
/Courier-latin1 ff 0.296333 scf sf
(MP3 encoding) dup sw 2 div 4.713449 ex sub 5.125868 m
 gs 1 -1 sc sh gr
0.100000 slw
[] 0 sd
0 slc
n 8.550100 5.177804 m 7.577736 5.185846 l s
[] 0 sd
0 slj
0 slc
n 7.202749 5.188947 m 7.700664 4.934820 l 7.577736 5.185846 l 7.704799 5.434803 l ef
n 7.202749 5.188947 m 7.700664 4.934820 l 7.577736 5.185846 l 7.704799 5.434803 l cp s
0.100000 slw
[] 0 sd
0 slc
0 slj
0.100000 slw
0 slc
0 slj
[] 0 sd
1.000000 1.000000 1.000000 srgb
n 2.412177 6.939561 m 7.114408 6.939561 l 7.114408 9.202289 l 2.412177 9.202289 l ef
0.000000 0.000000 0.000000 srgb
n 2.412177 6.939561 m 7.114408 6.939561 l 7.114408 9.202289 l 2.412177 9.202289 l cp s
0 slc
0 slj
[] 0 sd
n 2.882400 6.939561 m 2.882400 9.202289 l s
0 slc
0 slj
[] 0 sd
n 2.412177 7.165834 m 7.114408 7.165834 l s
/Courier-latin1 ff 0.296333 scf sf
(MP3 files at 128,) dup sw 2 div 4.998404 ex sub 7.485065 m
 gs 1 -1 sc sh gr
(192, 256 and) dup sw 2 div 4.998404 ex sub 7.908399 m
 gs 1 -1 sc sh gr
(320kBps) dup sw 2 div 4.998404 ex sub 8.331732 m
 gs 1 -1 sc sh gr
(\(n = 1600\)) dup sw 2 div 4.998404 ex sub 8.755065 m
 gs 1 -1 sc sh gr
0.100000 slw
[] 0 sd
0 slc
0 slj
0.100000 slw
0 slc
0 slj
[] 0 sd
1.000000 1.000000 1.000000 srgb
n 8.776099 7.964860 m 10.897407 7.964860 l 10.897407 9.709046 l 10.473145 9.418348 10.261014 9.418348 9.836753 9.709046 c 9.412491 9.999743 9.200361 9.999743 8.776099 9.709046 c 8.776099 7.964860 l ef
0.000000 0.000000 0.000000 srgb
n 8.776099 7.964860 m 10.897407 7.964860 l 10.897407 9.709046 l 10.473145 9.418348 10.261014 9.418348 9.836753 9.709046 c 9.412491 9.999743 9.200361 9.999743 8.776099 9.709046 c 8.776099 7.964860 l s
/Helvetica-latin1 ff 0.560000 scf sf
0.100000 slw
[] 0 sd
0 slc
0 slj
0.100000 slw
0 slc
0 slj
[] 0 sd
1.000000 1.000000 1.000000 srgb
n 9.111973 8.300733 m 11.215603 8.300733 l 11.215603 10.029206 l 10.794877 9.741127 10.584514 9.741127 10.163788 10.029206 c 9.743062 10.317285 9.532699 10.317285 9.111973 10.029206 c 9.111973 8.300733 l ef
0.000000 0.000000 0.000000 srgb
n 9.111973 8.300733 m 11.215603 8.300733 l 11.215603 10.029206 l 10.794877 9.741127 10.584514 9.741127 10.163788 10.029206 c 9.743062 10.317285 9.532699 10.317285 9.111973 10.029206 c 9.111973 8.300733 l s
0.100000 slw
[] 0 sd
0 slc
0 slj
0.100000 slw
0 slc
0 slj
[] 0 sd
1.000000 1.000000 1.000000 srgb
n 9.465524 8.601252 m 11.463089 8.601252 l 11.463089 10.361151 l 11.063576 10.067835 10.863819 10.067835 10.464306 10.361151 c 10.064793 10.654468 9.865037 10.654468 9.465524 10.361151 c 9.465524 8.601252 l ef
0.000000 0.000000 0.000000 srgb
n 9.465524 8.601252 m 11.463089 8.601252 l 11.463089 10.361151 l 11.063576 10.067835 10.863819 10.067835 10.464306 10.361151 c 10.064793 10.654468 9.865037 10.654468 9.465524 10.361151 c 9.465524 8.601252 l s
showpage
