<?xml version="1.0" encoding="UTF-8" standalone="no"?>
<!DOCTYPE svg PUBLIC "-//W3C//DTD SVG 1.0//EN" "http://www.w3.org/TR/2001/PR-SVG-20010719/DTD/svg10.dtd">
<svg width="12cm" height="11cm" viewBox="21 4 232 210" xmlns="http://www.w3.org/2000/svg" xmlns:xlink="http://www.w3.org/1999/xlink">
  <g id="Background">
    <g>
      <path style="fill: #ffffff; fill-opacity: 1; stroke-opacity: 1; stroke-width: 2; stroke: #000000" fill-rule="evenodd" d="M 29.6989 23.5599 L 53.5855,23.5599 C 56.8836,23.5599 59.5572,27.5705 59.5572,32.518 C 59.5572,37.4654 56.8836,41.476 53.5855,41.476 L 29.6989,41.476 C 26.4008,41.476 23.7272,37.4654 23.7272,32.518 C 23.7272,27.5705 26.4008,23.5599 29.6989,23.5599z"/>
      <text font-size="6.77333" style="fill: #000000; fill-opacity: 1; stroke: none;text-anchor:middle;font-family:Helvetica LT Std;font-style:normal;font-weight:normal" x="41.6422" y="33.148">
        <tspan x="41.6422" y="33.148">Start</tspan>
      </text>
    </g>
    <g>
      <rect style="fill: #ffffff; fill-opacity: 1; stroke-opacity: 1; stroke-width: 2; stroke: #000000" x="82.8798" y="6.30241" width="56.9444" height="52.6667" rx="0" ry="0"/>
      <line style="fill: none; stroke-opacity: 1; stroke-width: 2; stroke: #000000" x1="88.5742" y1="6.30241" x2="88.5742" y2="58.9691"/>
      <line style="fill: none; stroke-opacity: 1; stroke-width: 2; stroke: #000000" x1="82.8798" y1="11.5691" x2="139.824" y2="11.5691"/>
      <text font-size="6.77333" style="fill: #000000; fill-opacity: 1; stroke: none;text-anchor:middle;font-family:Helvetica LT Std;font-style:normal;font-weight:normal" x="114.199" y="27.4325">
        <tspan x="114.199" y="27.4325">Lossless</tspan>
        <tspan x="114.199" y="35.8991">WAV files</tspan>
        <tspan x="114.199" y="44.3658">(n = 100)</tspan>
      </text>
    </g>
    <text font-size="12.7998" style="fill: #000000; fill-opacity: 1; stroke: none;text-anchor:start;font-family:sans-serif;font-style:normal;font-weight:normal" x="41.6422" y="32.518">
      <tspan x="41.6422" y="32.518"></tspan>
    </text>
    <g>
      <rect style="fill: #ffffff; fill-opacity: 1; stroke-opacity: 1; stroke-width: 2; stroke: #000000" x="170.321" y="9.0902" width="81.9" height="47.4" rx="0" ry="0"/>
      <text font-size="6.77333" style="fill: #000000; fill-opacity: 1; stroke: none;text-anchor:middle;font-family:Helvetica LT Std;font-style:normal;font-weight:normal" x="211.271" y="33.4201">
        <tspan x="211.271" y="33.4201">MP3 encoding</tspan>
      </text>
    </g>
    <g>
      <line style="fill: none; stroke-opacity: 1; stroke-width: 2; stroke: #000000" x1="59.5572" y1="32.518" x2="71.8799" y2="32.5802"/>
      <polygon style="fill: #000000; fill-opacity: 1; stroke-opacity: 1; stroke-width: 2; stroke: #000000" fill-rule="evenodd" points="71.8547,37.5801 81.8798,32.6307 71.9052,27.5803 "/>
    </g>
    <g>
      <line style="fill: none; stroke-opacity: 1; stroke-width: 2; stroke: #000000" x1="140.827" y1="32.6945" x2="159.321" y2="32.7545"/>
      <polygon style="fill: #000000; fill-opacity: 1; stroke-opacity: 1; stroke-width: 2; stroke: #000000" fill-rule="evenodd" points="159.305,37.7545 169.321,32.787 159.337,27.7545 "/>
    </g>
    <g>
      <rect style="fill: #ffffff; fill-opacity: 1; stroke-opacity: 1; stroke-width: 2; stroke: #000000" x="171.986" y="79.5036" width="78.6159" height="47.1785" rx="0" ry="0"/>
      <line style="fill: none; stroke-opacity: 1; stroke-width: 2; stroke: #000000" x1="179.848" y1="79.5036" x2="179.848" y2="126.682"/>
      <line style="fill: none; stroke-opacity: 1; stroke-width: 2; stroke: #000000" x1="171.986" y1="84.2214" x2="250.602" y2="84.2214"/>
      <text font-size="6.77333" style="fill: #000000; fill-opacity: 1; stroke: none;text-anchor:middle;font-family:Helvetica LT Std;font-style:normal;font-weight:normal" x="215.225" y="93.3818">
        <tspan x="215.225" y="93.3818">MP3 files at 128,</tspan>
        <tspan x="215.225" y="101.848">192, 256 and</tspan>
        <tspan x="215.225" y="110.315">320kBps</tspan>
        <tspan x="215.225" y="118.782">(n = 400)</tspan>
      </text>
    </g>
    <g>
      <line style="fill: none; stroke-opacity: 1; stroke-width: 2; stroke: #000000" x1="211.271" y1="56.4902" x2="211.283" y2="68.5036"/>
      <polygon style="fill: #000000; fill-opacity: 1; stroke-opacity: 1; stroke-width: 2; stroke: #000000" fill-rule="evenodd" points="206.283,68.5087 211.293,78.5036 216.283,68.4984 "/>
    </g>
    <g>
      <rect style="fill: #ffffff; fill-opacity: 1; stroke-opacity: 1; stroke-width: 2; stroke: #000000" x="46.719" y="80.0974" width="95.1" height="47.4" rx="0" ry="0"/>
      <text font-size="6.77333" style="fill: #000000; fill-opacity: 1; stroke: none;text-anchor:middle;font-family:Helvetica LT Std;font-style:normal;font-weight:normal" x="94.269" y="104.427">
        <tspan x="94.269" y="104.427">MP3 encoding</tspan>
      </text>
    </g>
    <g>
      <line style="fill: none; stroke-opacity: 1; stroke-width: 2; stroke: #000000" x1="171.002" y1="103.556" x2="151.555" y2="103.717"/>
      <polygon style="fill: #000000; fill-opacity: 1; stroke-opacity: 1; stroke-width: 2; stroke: #000000" fill-rule="evenodd" points="144.055,103.779 154.013,98.6964 151.555,103.717 154.096,108.696 "/>
    </g>
    <g>
      <rect style="fill: #ffffff; fill-opacity: 1; stroke-opacity: 1; stroke-width: 2; stroke: #000000" x="48.2435" y="138.791" width="94.0446" height="45.2546" rx="0" ry="0"/>
      <line style="fill: none; stroke-opacity: 1; stroke-width: 2; stroke: #000000" x1="57.648" y1="138.791" x2="57.648" y2="184.046"/>
      <line style="fill: none; stroke-opacity: 1; stroke-width: 2; stroke: #000000" x1="48.2435" y1="143.317" x2="142.288" y2="143.317"/>
      <text font-size="6.77333" style="fill: #000000; fill-opacity: 1; stroke: none;text-anchor:middle;font-family:Helvetica LT Std;font-style:normal;font-weight:normal" x="99.9681" y="151.611">
        <tspan x="99.9681" y="151.611">MP3 files at 128,</tspan>
        <tspan x="99.9681" y="160.078">192, 256 and</tspan>
        <tspan x="99.9681" y="168.545">320kBps</tspan>
        <tspan x="99.9681" y="177.011">(n = 1600)</tspan>
      </text>
    </g>
    <g>
      <path style="fill: #ffffff; fill-opacity: 1; stroke-opacity: 1; stroke-width: 2; stroke: #000000" fill-rule="evenodd" d="M 175.522 159.297 L 217.948,159.297 L 217.948,194.181 C 209.463,188.367 205.22,188.367 196.735,194.181 C 188.25,199.995 184.007,199.995 175.522,194.181 L 175.522,159.297z"/>
      <text font-size="12.7998" style="fill: #000000; fill-opacity: 1; stroke: none;text-anchor:middle;font-family:sans-serif;font-style:normal;font-weight:normal" x="196.735" y="177.713">
        <tspan x="196.735" y="177.713"></tspan>
      </text>
    </g>
    <g>
      <path style="fill: #ffffff; fill-opacity: 1; stroke-opacity: 1; stroke-width: 2; stroke: #000000" fill-rule="evenodd" d="M 182.239 166.015 L 224.312,166.015 L 224.312,200.584 C 215.898,194.823 211.69,194.823 203.276,200.584 C 194.861,206.346 190.654,206.346 182.239,200.584 L 182.239,166.015z"/>
      <text font-size="12.7998" style="fill: #000000; fill-opacity: 1; stroke: none;text-anchor:middle;font-family:sans-serif;font-style:normal;font-weight:normal" x="203.276" y="184.299">
        <tspan x="203.276" y="184.299"></tspan>
      </text>
    </g>
    <g>
      <path style="fill: #ffffff; fill-opacity: 1; stroke-opacity: 1; stroke-width: 2; stroke: #000000" fill-rule="evenodd" d="M 189.31 172.025 L 229.262,172.025 L 229.262,207.223 C 221.272,201.357 217.276,201.357 209.286,207.223 C 201.296,213.089 197.301,213.089 189.31,207.223 L 189.31,172.025z"/>
      <text font-size="12.7998" style="fill: #000000; fill-opacity: 1; stroke: none;text-anchor:middle;font-family:sans-serif;font-style:normal;font-weight:normal" x="209.286" y="190.572">
        <tspan x="209.286" y="190.572"></tspan>
      </text>
    </g>
  </g>
</svg>
